Tidy Data
…
---
# 2. Multiple variables stored in one column

`\(~\)`

```r
dataset2 <- dataset2 %>% 
  pivot_longer(-name, names_to = "combination", values_to = "frequency")
dataset2
```

```
## # A tibble: 24 x 3
##    name      combination frequency
##    <chr>     <chr>           <int>
##  1 Company_A m2035               9
##  2 Company_A m3550               1
##  3 Company_A m5065               1
##  4 Company_A f2035               3
##  5 Company_A f3550              10
##  6 Company_A f5060               9
##  7 Company_B m2035               2
##  8 Company_B m3550               4
##  9 Company_B m5065               5
## 10 Company_B f2035               8
## # … with 14 more rows
```

---
# 2. Multiple variables stored in one column

`\(~\)`

```r
dataset2 <- dataset2 %>% 
  separate(combination, c("sex", "age"),sep = "(?<=[a-z])(?=[0-9])")
```

--

```
## # A tibble: 24 x 4
##    name      sex   age   frequency
##    <chr>     <chr> <chr>     <int>
##  1 Company_A m     2035          9
##  2 Company_A m     3550          1
##  3 Company_A m     5065          1
##  4 Company_A f     2035          3
##  5 Company_A f     3550         10
##  6 Company_A f     5060          9
##  7 Company_B m     2035          2
##  8 Company_B m     3550          4
##  9 Company_B m     5065          5
## 10 Company_B f     2035          8
## # … with 14 more rows
```
…
</br>

```r
dataset3 <- dataset3 %>% 
  pivot_longer(y2019:y2021, names_to = "year", values_to = "value")

dataset3 <- dataset3 %>% 
  mutate(year = as.integer(gsub("y", "", year))) %>%
  select(city, month, element, year, value)

dataset3
```

```
## # A tibble: 24 x 5
##    city      month   element                    year value 
##    <chr>     <chr>   <chr>                     <int> <chr> 
##  1 Beijing   January avg_environmental_quality  2019 high  
##  2 Beijing   January avg_environmental_quality  2020 median
##  3 Beijing   January avg_environmental_quality  2021 high  
##  4 Beijing   January avg_air_quality            2019 low   
##  5 Beijing   January avg_air_quality            2020 high  
##  6 Beijing   January avg_air_quality            2021 median
##  7 Hong Kong January avg_environmental_quality  2019 low   
##  8 Hong Kong January avg_environmental_quality  2020 median
##  9 Hong Kong January avg_environmental_quality  2021 low   
## 10 Hong Kong January avg_air_quality            2019 low   
## # … with 14 more rows
```
…
